{
    "data": [
        {
            "id": 294892,
            "iid": 85,
            "title": "asdfasdfasdfsadfasdfas",
            "project_id": 124047,
            "labels": [
                "KB[stage][0][Backlog]",
                "bug",
                "discussion"
            ],
            "description": "# qweqw e qweqw e\n\n## eaw dasf asga hdfh fgh\n\n\n\n",
            "author": {
                "name": "V",
                "username": "v.tyubek",
                "id": 48087,
                "state": "active",
                "avatar_url": "https:\/\/secure.gravatar.com\/avatar\/83f0337afcdb19a19bd699621cda6c5e?s=40&d=identicon"
            },
            "assignee": {
                "name": "Anton Popov",
                "username": "cnam812",
                "id": 48059,
                "state": "active",
                "avatar_url": "https:\/\/gitlab.com\/uploads\/user\/avatar\/48059\/1832776.png"
            },
            "state": "opened",
            "todo": [
                {
                    "checked": false,
                    "body": "adss asd asd asd asda dsd"
                },
                {
                    "checked": true,
                    "body": "dsad as das fag fsdfsd"
                },
                {
                    "checked": false,
                    "body": "fas fa fas fasf fasf asf"
                }
            ],
            "milestone": {
                "data": {
                    "id": 14569,
                    "title": "Super milestone",
                    "state": "active"
                }
            }
        },
        {
            "id": 294860,
            "iid": 84,
            "title": "asasfasdf",
            "project_id": 124047,
            "labels": ["KB[stage][0][Backlog]"],
            "description": "asasfasfsad\n\n\ne qwe qw eqw eqw e\n\n\n\n",
            "author": {
                "name": "V",
                "username": "v.tyubek",
                "id": 48087,
                "state": "active",
                "avatar_url": "https:\/\/secure.gravatar.com\/avatar\/83f0337afcdb19a19bd699621cda6c5e?s=40&d=identicon"
            },
            "assignee": null,
            "state": "opened",
            "todo": [
                {
                    "checked": false,
                    "body": "eqw eqw e"
                },
                {
                    "checked": true,
                    "body": "e qwe qwe qwe"
                },
                {
                    "checked": false,
                    "body": "e qwe qw eqw eqwe"
                }
            ]
        }
    ]
}
